%YAML 1.1
%TAG !u! tag:unity3d.com,2011:
--- !u!114 &11400000
MonoBehaviour:
  m_ObjectHideFlags: 0
  m_CorrespondingSourceObject: {fileID: 0}
  m_PrefabInstance: {fileID: 0}
  m_PrefabAsset: {fileID: 0}
  m_GameObject: {fileID: 0}
  m_Enabled: 1
  m_EditorHideFlags: 0
  m_Script: {fileID: 11500000, guid: 336374fbed1697d44ab91d48074598a2, type: 3}
  m_Name: ServerRack
  m_EditorClassIdentifier: 
  objectName: Server Rack
  ObjectPrefab: {fileID: 7100487092882479796, guid: 072ba249ea7f7f644ad0f5b0f0c1a89c,
    type: 3}
  icon: {fileID: 21300000, guid: a2025f93a4eb4404d8bffbfedfff8a77, type: 3}
